site18	03-12-2015 14:40:25	03-12-2015 14:43:24	247	247	0	178	2
site3	03-12-2015 14:43:24	03-12-2015 14:46:26	400	15	385	182	3
site9	29-01-2016 13:55:02	29-01-2016 14:05:38	495	0	0	635	10
site9	29-01-2016 14:37:04	29-01-2016 14:40:51	495	492	0	226	3
