Crawler:site3 Date:30-10-2015 Performance StartTime:30-10-2015_14:45:29 EndTime:30-10-2015_14:46:13 TotalMinute:0
Crawler:site18 Date:30-10-2015 Performance StartTime:30-10-2015_15:34:59 EndTime:30-10-2015_15:36:57 TotalMinute:1
Crawler:site23 Date:30-10-2015 Performance Fail
Crawler:site16	Date:30-11-2015	Performance	StartTime:30-11-2015 13:43:42	EndTime:30-11-2015 13:46:14	TotalMinute:2(151)
Crawler:site16	Date:01-12-2015	Performance	StartTime:01-12-2015 14:32:48	EndTime:01-12-2015 14:35:21	TotalMinute:2(152)
Crawler:site16	Date:01-12-2015	Performance	StartTime:01-12-2015 14:38:35	EndTime:01-12-2015 14:41:00	TotalMinute:2(144)
Crawler:site3	Date:01-12-2015	Performance	StartTime:01-12-2015 16:16:07	EndTime:01-12-2015 16:16:55	TotalMinute:0(47)
Crawler:site3	Date:01-12-2015	Performance	StartTime:01-12-2015 16:32:18	EndTime:01-12-2015 16:35:05	TotalMinute:2(167)
Crawler:site3	Date:01-12-2015	Performance	StartTime:01-12-2015 16:42:21	EndTime:01-12-2015 16:44:47	TotalMinute:2(146)
Crawler:site3	Date:01-12-2015	Performance	StartTime:01-12-2015 16:45:01	EndTime:01-12-2015 16:47:27	TotalMinute:2(145)
Crawler:site20	Date:02-12-2015	Performance	StartTime:02-12-2015 10:02:27	EndTime:02-12-2015 10:09:06	TotalMinute:6(398)
Crawler:site18	Date:02-12-2015	Performance	StartTime:02-12-2015 12:03:27	EndTime:02-12-2015 12:05:53	TotalMinute:2(146)
site3	02-12-2015 16:34:35	02-12-2015 16:36:52	393	20	136	2)
site8	02-12-2015 16:36:52	02-12-2015 16:37:44	119	119	52	0)
site3	02-12-2015 17:18:46	02-12-2015 17:21:01	396	4	135	2
site18	02-12-2015 17:21:01	02-12-2015 17:24:17	248	231	195	3
site1	02-12-2015 17:24:17	02-12-2015 17:25:11	105	105	54	0
site18	02-12-2015 17:31:57	02-12-2015 17:35:35	248	231	218	3
site18	02-12-2015 17:45:24	02-12-2015 17:48:32	248	231	188	3
site17	03-12-2015 08:57:40	03-12-2015 09:06:42	3017	3016	542	9
site17	03-12-2015 09:11:44	03-12-2015 09:22:13	3017	0	628	10
site3	04-12-2015 10:43:39	04-12-2015 10:46:55	400	6	196	3
site9	04-12-2015 10:59:22	04-12-2015 11:00:17	319	319	54	0
site9	04-12-2015 11:08:32	04-12-2015 11:10:51	319	0	138	2
site9	04-12-2015 11:13:35	04-12-2015 11:15:38	319	0	122	2
site9	04-12-2015 11:19:40	04-12-2015 11:22:15	319	0	155	2
site9	04-12-2015 11:28:32	04-12-2015 11:30:30	319	0	118	1
site9	04-12-2015 11:33:32	04-12-2015 11:36:25	319	0	173	2
site9	04-12-2015 11:41:50	04-12-2015 11:43:40	319	0	110	1
site9	04-12-2015 11:48:30	04-12-2015 11:50:51	269	0	140	2
site9	04-12-2015 11:58:30	04-12-2015 12:00:29	319	0	119	1
site9	04-12-2015 13:06:17	04-12-2015 13:08:48	269	0	150	2
site9	04-12-2015 13:11:26	04-12-2015 13:13:46	319	0	140	2
site9	04-12-2015 13:18:01	04-12-2015 13:20:22	319	0	140	2
site9	04-12-2015 13:24:01	04-12-2015 13:27:04	319	0	182	3
site15	18-12-2015 08:47:03	18-12-2015 08:47:14	0	0	11	0
site15	18-12-2015 08:48:33	18-12-2015 08:52:39	0	0	245	4
site15	18-12-2015 08:53:53	18-12-2015 08:55:03	0	0	70	1
site15	18-12-2015 09:14:31	18-12-2015 09:16:20	840	840	109	1
Crawler:site111 Date:06-01-2016 Performance StartTime:06-01-2016_10:58:03 EndTime:06-01-2016_10:58:47 TotalMinute:0
Crawler:site111 Date:06-01-2016 Performance StartTime:06-01-2016_11:09:14 EndTime:06-01-2016_11:09:59 TotalMinute:0
Crawler:112 Date:06-01-2016 Performance can't find site:112
Crawler:113 Date:06-01-2016 Performance can't find site:113
Crawler:site111 Date:06-01-2016 Performance StartTime:06-01-2016_11:10:39 EndTime:06-01-2016_11:11:22 TotalMinute:0
Crawler:site112 Date:06-01-2016 Performance StartTime:06-01-2016_11:11:22 EndTime:06-01-2016_11:12:04 TotalMinute:0
Crawler:site111 Date:06-01-2016 Performance StartTime:06-01-2016_11:14:41 EndTime:06-01-2016_11:15:25 TotalMinute:0
Crawler:site112 Date:06-01-2016 Performance StartTime:06-01-2016_11:15:25 EndTime:06-01-2016_11:16:30 TotalMinute:1
Crawler:site114 Date:13-01-2016 Performance StartTime:13-01-2016_11:13:45 EndTime:13-01-2016_11:14:37 TotalMinute:0
Crawler:site114 Date:13-01-2016 Performance StartTime:13-01-2016_11:21:03 EndTime:13-01-2016_11:21:55 TotalMinute:0
Crawler:site114 Date:13-01-2016 Performance StartTime:13-01-2016_11:48:07 EndTime:13-01-2016_11:48:58 TotalMinute:0
Crawler:site114 Date:13-01-2016 Performance StartTime:13-01-2016_13:13:32 EndTime:13-01-2016_13:14:14 TotalMinute:0
Crawler:site114 Date:13-01-2016 Performance StartTime:13-01-2016_13:26:32 EndTime:13-01-2016_13:27:14 TotalMinute:0
Crawler:site115 Date:13-01-2016 Performance StartTime:13-01-2016_13:27:14 EndTime:13-01-2016_13:27:54 TotalMinute:0
Crawler:site116 Date:13-01-2016 Performance StartTime:13-01-2016_13:27:54 EndTime:13-01-2016_13:28:35 TotalMinute:0
Crawler:site117 Date:13-01-2016 Performance StartTime:13-01-2016_13:28:35 EndTime:13-01-2016_13:29:16 TotalMinute:0
Crawler:site118 Date:13-01-2016 Performance Fail
site7	27-01-2016 09:22:43	27-01-2016 09:24:30	671	671	107	1
site15	27-01-2016 10:33:33	27-01-2016 10:35:24	1020	1020	111	1
site9	27-01-2016 10:54:04	27-01-2016 10:55:08	482	482	64	1
site9	27-01-2016 15:22:37	27-01-2016 15:25:22	482	482	165	2
site9	27-01-2016 16:58:54	27-01-2016 17:04:20	482	58	325	5
site9	27-01-2016 17:35:15	27-01-2016 17:39:59	482	59	284	4
site9	28-01-2016 10:36:52	28-01-2016 10:41:17	482	482	264	4
site1	28-01-2016 11:05:15	28-01-2016 11:06:13	127	127	57	0
site1	28-01-2016 11:36:07	28-01-2016 11:37:43	127	127	96	1
site1	28-01-2016 11:45:15	28-01-2016 11:48:17	127	127	181	3
site1	28-01-2016 11:56:37	28-01-2016 11:58:22	127	127	105	1
site7	29-01-2016 11:25:45	29-01-2016 11:46:32	758	758	1246	20
site6	29-01-2016 13:30:05	29-01-2016 13:31:10	160	160	65	1
29-01-2016 13:59:30	site9	(JE 5.0.73) storage\frontier The environment cannot be locked for single writer access. ENV_LOCKED: The je.lck file could not be locked. Environment is invalid and must be closed.
site9	29-01-2016 15:39:25	29-01-2016 15:42:11	495	495	165	2
site9	29-01-2016 15:53:22	29-01-2016 15:57:27	495	495	245	4
site7	29-01-2016 16:17:25	29-01-2016 16:37:12	758	758	1186	19
site9	29-01-2016 17:22:56	29-01-2016 17:25:51	495	495	175	2
site17	29-01-2016 17:49:46	29-01-2016 17:58:03	2961	2961	497	8
site2	29-01-2016 19:26:47	29-01-2016 19:29:24	688	688	157	2
site1	31-01-2016 10:41:53	31-01-2016 10:44:58	142	142	185	3
site1	31-01-2016 11:11:35	31-01-2016 11:13:22	142	142	107	1
site1	31-01-2016 11:14:29	31-01-2016 11:17:45	142	0	196	3
site1	31-01-2016 11:49:37	31-01-2016 11:52:28	142	142	170	2
site19	31-01-2016 12:17:28	31-01-2016 12:27:15	1813	1236	587	9
site2	31-01-2016 12:43:10	31-01-2016 12:45:47	698	698	157	2
site2	31-01-2016 13:52:35	31-01-2016 14:08:47	698	681	972	16
site1	31-01-2016 14:35:25	31-01-2016 14:38:36	142	142	191	3
site4	01-02-2016 09:26:15	01-02-2016 09:27:00	11	11	45	0
site2	01-02-2016 10:48:03	01-02-2016 10:55:18	329	329	434	7
site4	01-02-2016 17:25:37	01-02-2016 17:26:43	11	11	65	1
site4	01-02-2016 17:54:32	01-02-2016 17:55:27	11	0	55	0
site10	02-02-2016 15:48:38	02-02-2016 15:49:21	34	34	42	0
site10	02-02-2016 16:19:37	02-02-2016 16:20:40	34	34	63	1
site4	16-02-2016 16:06:53	16-02-2016 16:07:59	20	20	65	1
site4	16-02-2016 16:09:07	16-02-2016 16:14:43	260	255	335	5
site7	16-02-2016 16:21:05	16-02-2016 16:30:42	228	228	577	9
site10	16-02-2016 16:40:03	16-02-2016 16:41:46	161	161	103	1
site19	16-02-2016 16:48:52	16-02-2016 16:56:40	1981	1981	467	7
site2	17-02-2016 09:45:47	17-02-2016 09:58:53	729	729	785	13
site20	17-02-2016 10:16:03	17-02-2016 10:17:10	292	292	66	1
site16	17-02-2016 10:45:53	17-02-2016 10:46:40	57	57	46	0
site6	17-02-2016 13:40:26	17-02-2016 13:41:32	173	173	66	1
site1	17-02-2016 16:19:52	17-02-2016 16:38:49	680	0	1136	18
site9	17-02-2016 16:45:54	17-02-2016 16:53:30	1087	1087	455	7
site4	18-02-2016 14:27:31	18-02-2016 14:39:03	918	918	692	11
site6	18-02-2016 15:55:58	18-02-2016 16:10:55	1471	935	896	14
site6	18-02-2016 16:25:20	18-02-2016 16:54:03	1471	1	1722	28
site6	18-02-2016 16:54:48	18-02-2016 17:12:57	1471	935	1088	18
site20	19-02-2016 14:41:50	19-02-2016 14:42:35	0	0	45	0
site9	23-02-2016 10:23:21	23-02-2016 10:28:35	1088	1088	314	5
site6	26-02-2016 13:44:40	26-02-2016 14:18:38	1640	1042	2037	33
site4	02-03-2016 12:04:32	02-03-2016 12:22:04	804	804	1051	17
site4	02-03-2016 15:42:15	02-03-2016 15:46:28	200	200	252	4
site4	02-03-2016 15:52:30	02-03-2016 16:02:01	1014	1014	571	9
site4	02-03-2016 16:07:49	02-03-2016 16:16:59	1014	1014	550	9
site4	02-03-2016 16:56:14	02-03-2016 17:06:58	1014	1014	643	10
site4	02-03-2016 17:42:07	02-03-2016 18:04:28	1013	1013	1341	22
site4	03-03-2016 09:41:25	03-03-2016 10:07:28	1014	1014	1563	26
Crawler:site102 Date:16-03-2016 Performance can't find site:site102
Crawler:site101 Date:21-03-2016 Performance StartTime:21-03-2016_11:38:18 EndTime:21-03-2016_11:42:52 TotalMinute:4
Crawler:site106 Date:21-03-2016 Performance StartTime:21-03-2016_13:40:11 EndTime:21-03-2016_13:41:28 TotalMinute:1
site16	06-04-2016 14:52:11	06-04-2016 14:54:27	55	55	136	2
site16	06-04-2016 15:15:47	06-04-2016 15:17:43	55	55	116	1
site20	14-04-2016 11:54:03	14-04-2016 11:54:47	0	0	44	0
15-04-2016 16:20:32	15-04-2016 16:21:12	0	40	0
15-04-2016 16:44:40	15-04-2016 16:44:47	4	6	0
15-04-2016 16:48:22	15-04-2016 16:48:26	1	4	0
15-04-2016 16:48:35	15-04-2016 16:48:38	0	2	0
15-04-2016 16:50:25	15-04-2016 16:50:29	1	4	0
20-04-2016 14:24:21	20-04-2016 14:25:23	2	61	1
20-04-2016 14:39:20	20-04-2016 14:39:59	1	39	0
20-04-2016 14:50:52	20-04-2016 14:51:52	1	59	0
20-04-2016 14:55:11	20-04-2016 14:55:53	1	42	0
20-04-2016 15:09:40	20-04-2016 15:09:45	1	5	0
20-04-2016 15:25:10	20-04-2016 15:25:14	1	4	0
20-04-2016 15:28:42	20-04-2016 15:28:47	3	5	0
20-04-2016 15:52:49	20-04-2016 15:52:58	7	8	0
20-04-2016 16:06:41	20-04-2016 16:06:46	2	4	0
20-04-2016 16:08:44	20-04-2016 16:08:51	4	6	0
Crawler:site107 Date:10-05-2016 Performance StartTime:10-05-2016_09:11:06 EndTime:10-05-2016_09:20:13 TotalMinute:9
Crawler:site101 Date:10-05-2016 Performance StartTime:10-05-2016_09:40:49 EndTime:10-05-2016_09:44:23 TotalMinute:3
Crawler:site101 Date:10-05-2016 Performance StartTime:10-05-2016_09:47:39 EndTime:10-05-2016_09:51:03 TotalMinute:3
Crawler:site107 Date:10-05-2016 Performance StartTime:10-05-2016_09:54:45 EndTime:10-05-2016_10:03:40 TotalMinute:8
Crawler:site101 Date:10-05-2016 Performance StartTime:10-05-2016_10:11:34 EndTime:10-05-2016_10:14:48 TotalMinute:3
Crawler:site107 Date:10-05-2016 Performance StartTime:10-05-2016_10:15:36 EndTime:10-05-2016_10:24:21 TotalMinute:8
16-05-2016 14:01:55	16-05-2016 14:01:56	0	1	0
Crawler:site101 Date:20-06-2016 Performance StartTime:20-06-2016_15:22:12 EndTime:20-06-2016_15:23:47 TotalMinute:1
Crawler:site101 Date:20-06-2016 Performance StartTime:20-06-2016_15:25:34 EndTime:20-06-2016_15:27:09 TotalMinute:1
Crawler:site101 Date:20-06-2016 Performance StartTime:20-06-2016_15:28:26 EndTime:20-06-2016_15:34:31 TotalMinute:6
Crawler:site114 Date:20-06-2016 Performance StartTime:20-06-2016_17:28:26 EndTime:20-06-2016_17:29:08 TotalMinute:0
Crawler:site114 Date:21-06-2016 Performance StartTime:21-06-2016_08:46:06 EndTime:21-06-2016_08:46:49 TotalMinute:0
Crawler:site101 Date:27-06-2016 Performance StartTime:27-06-2016_09:50:04 EndTime:27-06-2016_10:03:20 TotalMinute:13
Crawler:site114 Date:27-06-2016 Performance StartTime:27-06-2016_11:49:09 EndTime:27-06-2016_11:50:42 TotalMinute:1
Crawler:site101 Date:06-07-2016 Performance StartTime:06-07-2016_16:33:09 EndTime:06-07-2016_16:38:40 TotalMinute:5
Crawler:site101 Date:06-07-2016 Performance StartTime:06-07-2016_16:58:25 EndTime:06-07-2016_17:04:48 TotalMinute:6
Crawler:site107 Date:06-07-2016 Performance StartTime:06-07-2016_17:08:36 EndTime:06-07-2016_17:09:09 TotalMinute:0
Crawler:site107 Date:06-07-2016 Performance StartTime:06-07-2016_17:14:44 EndTime:06-07-2016_17:21:30 TotalMinute:6
Crawler:site107 Date:06-07-2016 Performance StartTime:06-07-2016_17:39:42 EndTime:06-07-2016_17:39:42 TotalMinute:0
Crawler:site107 Date:06-07-2016 Performance StartTime:06-07-2016_17:40:32 EndTime:06-07-2016_17:40:33 TotalMinute:0
Crawler:site107 Date:06-07-2016 Performance StartTime:06-07-2016_17:41:56 EndTime:06-07-2016_17:42:03 TotalMinute:0
Crawler:site101 Date:08-07-2016 Performance StartTime:08-07-2016_16:42:11 EndTime:08-07-2016_16:47:44 TotalMinute:5
Crawler:site107 Date:08-07-2016 Performance StartTime:08-07-2016_16:52:39 EndTime:08-07-2016_16:59:26 TotalMinute:6
Crawler:site101 Date:08-07-2016 Performance StartTime:08-07-2016_17:04:29 EndTime:08-07-2016_17:09:57 TotalMinute:5
Crawler:site107 Date:08-07-2016 Performance StartTime:08-07-2016_17:11:16 EndTime:08-07-2016_17:18:14 TotalMinute:6
Crawler:site107 Date:08-07-2016 Performance StartTime:08-07-2016_17:37:01 EndTime:08-07-2016_17:43:50 TotalMinute:6
Crawler:site101 Date:11-07-2016 Performance StartTime:11-07-2016_10:08:33 EndTime:11-07-2016_10:12:19 TotalMinute:3
Crawler:site101 Date:11-07-2016 Performance StartTime:11-07-2016_10:16:13 EndTime:11-07-2016_10:21:54 TotalMinute:5
Crawler:site107 Date:11-07-2016 Performance StartTime:11-07-2016_10:25:31 EndTime:11-07-2016_10:32:14 TotalMinute:6
Crawler:site101 Date:12-07-2016 Performance StartTime:12-07-2016_11:03:34 EndTime:12-07-2016_11:03:34 TotalMinute:0
Crawler:site113 Date:13-07-2016 Performance can't find site:site113
Crawler:site113 Date:13-07-2016 Performance StartTime:13-07-2016_11:49:39 EndTime:13-07-2016_11:53:05 TotalMinute:3
Crawler:site113 Date:13-07-2016 Performance StartTime:13-07-2016_13:24:38 EndTime:13-07-2016_13:28:08 TotalMinute:3
Crawler:site107 Date:25-07-2016 Performance StartTime:25-07-2016_08:48:22 EndTime:25-07-2016_08:48:22 TotalMinute:0
Crawler:site107 Date:25-07-2016 Performance StartTime:25-07-2016_08:49:51 EndTime:25-07-2016_08:50:01 TotalMinute:0
Crawler:site107 Date:25-07-2016 Performance StartTime:25-07-2016_08:51:30 EndTime:25-07-2016_08:53:26 TotalMinute:1
Crawler:site107 Date:25-07-2016 Performance StartTime:25-07-2016_09:35:25 EndTime:25-07-2016_09:42:02 TotalMinute:6
Crawler:site101 Date:25-07-2016 Performance StartTime:25-07-2016_09:42:02 EndTime:25-07-2016_09:46:35 TotalMinute:4
Crawler:site107 Date:08-08-2016 Performance StartTime:08-08-2016_08:51:32 EndTime:08-08-2016_08:51:32 TotalMinute:0
Crawler:site107 Date:08-08-2016 Performance StartTime:08-08-2016_08:52:00 EndTime:08-08-2016_08:52:00 TotalMinute:0
Crawler:site120 Date:19-08-2016 Performance StartTime:19-08-2016_16:35:08 EndTime:19-08-2016_16:36:21 TotalMinute:1
Crawler:site121 Date:19-08-2016 Performance StartTime:19-08-2016_16:36:21 EndTime:19-08-2016_16:37:42 TotalMinute:1
Crawler:site108 Date:19-08-2016 Performance StartTime:19-08-2016_17:19:24 EndTime:19-08-2016_17:19:24 TotalMinute:0
Crawler:site109 Date:19-08-2016 Performance StartTime:19-08-2016_17:19:24 EndTime:19-08-2016_17:19:24 TotalMinute:0
Crawler:site108 Date:19-08-2016 Performance StartTime:19-08-2016_17:21:58 EndTime:19-08-2016_17:28:26 TotalMinute:6
Crawler:site109 Date:19-08-2016 Performance StartTime:19-08-2016_17:28:26 EndTime:19-08-2016_17:34:42 TotalMinute:6
Crawler:site120 Date:21-09-2016 Performance StartTime:21-09-2016_17:13:43 EndTime:21-09-2016_17:14:55 TotalMinute:1
Crawler:site121 Date:21-09-2016 Performance StartTime:21-09-2016_17:16:15 EndTime:21-09-2016_17:17:36 TotalMinute:1
site1	26-09-2016 15:37:18	26-09-2016 15:42:55	598	598	337	5
site1	26-09-2016 16:59:07	26-09-2016 17:00:01	50	50	53	0
site1	26-09-2016 17:03:21	26-09-2016 17:07:37	598	598	255	4
site1	26-09-2016 17:55:33	26-09-2016 18:00:08	598	598	275	4
site9	29-09-2016 14:44:07	29-09-2016 14:49:34	999	999	326	5
Crawler:site120 Date:29-09-2016 Performance StartTime:29-09-2016_16:21:57 EndTime:29-09-2016_16:23:09 TotalMinute:1
Crawler:site121 Date:29-09-2016 Performance StartTime:29-09-2016_16:23:09 EndTime:29-09-2016_16:24:19 TotalMinute:1
site2	30-09-2016 14:12:16	30-09-2016 14:24:23	760	733	726	12
site2	30-09-2016 14:43:24	30-09-2016 14:54:53	760	760	689	11
site16 update status = 0 all job yesterday crawler SUCCESS
site16	03-10-2016 15:04:03	03-10-2016 15:19:53	62	0	950	15
site16 update status = 0 all job yesterday crawler SUCCESS
site16	03-10-2016 15:23:59	03-10-2016 15:42:25	62	0	1105	18
Crawler:site120 Date:07-10-2016 Performance StartTime:07-10-2016_09:56:16 EndTime:07-10-2016_09:57:51 TotalMinute:1
Crawler:site121 Date:07-10-2016 Performance StartTime:07-10-2016_09:57:51 EndTime:07-10-2016_09:59:02 TotalMinute:1
Crawler:site120 Date:14-10-2016 Performance StartTime:14-10-2016_10:21:15 EndTime:14-10-2016_10:22:34 TotalMinute:1
Crawler:site121 Date:14-10-2016 Performance StartTime:14-10-2016_10:22:34 EndTime:14-10-2016_10:24:45 TotalMinute:2
Crawler:site120 Date:21-10-2016 Performance StartTime:21-10-2016_16:21:44 EndTime:21-10-2016_16:23:19 TotalMinute:1
Crawler:site121 Date:21-10-2016 Performance StartTime:21-10-2016_16:23:19 EndTime:21-10-2016_16:24:39 TotalMinute:1
Crawler:site120 Date:28-10-2016 Performance StartTime:28-10-2016_16:45:16 EndTime:28-10-2016_16:46:41 TotalMinute:1
Crawler:site121 Date:28-10-2016 Performance StartTime:28-10-2016_16:46:41 EndTime:28-10-2016_16:48:02 TotalMinute:1
Crawler:site120 Date:07-11-2016 Performance StartTime:07-11-2016_10:44:27 EndTime:07-11-2016_10:45:41 TotalMinute:1
Crawler:site121 Date:07-11-2016 Performance StartTime:07-11-2016_10:45:41 EndTime:07-11-2016_10:47:02 TotalMinute:1
Crawler:site101 Date:07-11-2016 Performance StartTime:07-11-2016_13:12:25 EndTime:07-11-2016_13:12:25 TotalMinute:0
Crawler:site101 Date:07-11-2016 Performance StartTime:07-11-2016_13:14:09 EndTime:07-11-2016_13:14:24 TotalMinute:0
Crawler:site101 Date:07-11-2016 Performance StartTime:07-11-2016_13:36:39 EndTime:07-11-2016_13:41:52 TotalMinute:5
Crawler:site120 Date:14-11-2016 Performance StartTime:14-11-2016_09:27:45 EndTime:14-11-2016_09:29:00 TotalMinute:1
Crawler:site121 Date:14-11-2016 Performance StartTime:14-11-2016_09:29:00 EndTime:14-11-2016_09:30:20 TotalMinute:1
Crawler:site120 Date:22-11-2016 Performance StartTime:22-11-2016_14:14:43 EndTime:22-11-2016_14:16:06 TotalMinute:1
Crawler:site121 Date:22-11-2016 Performance StartTime:22-11-2016_14:16:06 EndTime:22-11-2016_14:17:26 TotalMinute:1
Crawler:site120 Date:29-11-2016 Performance StartTime:29-11-2016_10:32:16 EndTime:29-11-2016_10:33:38 TotalMinute:1
Crawler:site121 Date:29-11-2016 Performance StartTime:29-11-2016_10:33:38 EndTime:29-11-2016_10:34:59 TotalMinute:1
Crawler:site120 Date:06-12-2016 Performance StartTime:06-12-2016_10:03:36 EndTime:06-12-2016_10:04:59 TotalMinute:1
Crawler:site121 Date:06-12-2016 Performance StartTime:06-12-2016_10:04:59 EndTime:06-12-2016_10:06:19 TotalMinute:1
Crawler:site120 Date:16-12-2016 Performance StartTime:16-12-2016_17:10:42 EndTime:16-12-2016_17:11:54 TotalMinute:1
Crawler:site121 Date:16-12-2016 Performance StartTime:16-12-2016_17:11:54 EndTime:16-12-2016_17:13:05 TotalMinute:1
site2	FromDate:22-12-2016 10:58:14	ToDate:22-12-2016 10:58:46	TotalJob:0	TotalJobNew:0	Second:31	Minute:0
22-12-2016 11:11:52	can't find :site2 in JellyfishCrawlConfig.xml. please check again
22-12-2016 11:12:21	can't find :site2 in JellyfishCrawlConfig.xml. please check again
06-01-2017 10:40:58	site1	(JE 5.0.73) storage\frontier The environment cannot be locked for single writer access. ENV_LOCKED: The je.lck file could not be locked. Environment is invalid and must be closed.
site2	FromDate:12-01-2017 16:27:51	ToDate:12-01-2017 16:28:56	TotalJob:40	TotalJobNew:40	Second:65	Minute:1
site8	FromDate:13-01-2017 16:37:59	ToDate:13-01-2017 16:38:01	TotalJob:0	TotalJobNew:0	Second:1	Minute:0
site8	FromDate:13-01-2017 16:39:44	ToDate:13-01-2017 16:39:47	TotalJob:0	TotalJobNew:0	Second:2	Minute:0
site2	FromDate:17-01-2017 11:27:21	ToDate:17-01-2017 11:28:12	TotalJob:40	TotalJobNew:40	Second:50	Minute:0
site4	FromDate:17-01-2017 14:57:22	ToDate:17-01-2017 15:00:33	TotalJob:272	TotalJobNew:248	Second:190	Minute:3
site2 update status = 0 all job yesterday crawler FAIL
site2	FromDate:08-02-2017 14:41:17	ToDate:08-02-2017 14:42:09	TotalJob:40	TotalJobNew:40	Second:51	Minute:0
site2 update status = 0 all job yesterday crawler FAIL
site2	FromDate:08-02-2017 15:00:35	ToDate:08-02-2017 15:01:36	TotalJob:40	TotalJobNew:17	Second:60	Minute:1
14-02-2017 11:13:04	can't find :site9 in JellyfishCrawlConfig.xml. please check again
site2 update status = 0 all job yesterday crawler FAIL
site2	FromDate:22-03-2017 15:59:12	ToDate:22-03-2017 16:00:12	TotalJob:40	TotalJobNew:40	Second:60	Minute:1
site2 update status = 0 all job yesterday crawler FAIL
site2	FromDate:22-03-2017 16:03:01	ToDate:22-03-2017 16:04:12	TotalJob:40	TotalJobNew:40	Second:70	Minute:1
site2 update status = 0 all job yesterday crawler FAIL
site2	FromDate:23-03-2017 10:29:17	ToDate:23-03-2017 10:30:18	TotalJob:40	TotalJobNew:40	Second:60	Minute:1
site2 update status = 0 all job yesterday crawler FAIL
site2	FromDate:27-03-2017 15:20:13	ToDate:27-03-2017 15:21:14	TotalJob:40	TotalJobNew:40	Second:61	Minute:1
site8 update status = 0 all job yesterday crawler SUCCESS
site8 update status = 0 all job yesterday crawler FAIL
site8 update status = 0 all job yesterday crawler FAIL
site2 update status = 0 all job yesterday crawler FAIL
site2	FromDate:29-03-2017 15:25:27	ToDate:29-03-2017 15:26:18	TotalJob:40	TotalJobNew:40	Second:50	Minute:0
site8 update status = 0 all job yesterday crawler FAIL
delete site vnw in server test success
delete site vnw in server test success
site1 update status = 0 all job yesterday crawler FAIL
site1	FromDate:30-03-2017 17:10:33	ToDate:30-03-2017 17:11:15	TotalJob:0	TotalJobNew:0	Second:42	Minute:0
site8 update status = 0 all job yesterday crawler FAIL
site8 update status = 0 all job yesterday crawler FAIL
site1 update status = 0 all job yesterday crawler FAIL
site1	FromDate:30-03-2017 17:22:16	ToDate:30-03-2017 17:25:27	TotalJob:639	TotalJobNew:0	Second:191	Minute:3
site8 update status = 0 all job yesterday crawler FAIL
13-04-2017 17:19:14	site10	(JE 5.0.73) storage\frontier The environment cannot be locked for single writer access. ENV_LOCKED: The je.lck file could not be locked. Environment is invalid and must be closed.
site10 update status = 0 all job yesterday crawler FAIL
site10	FromDate:13-04-2017 17:19:23	ToDate:13-04-2017 17:20:37	TotalJob:405	TotalJobNew:405	Second:73	Minute:1
site19 update status = 0 all job yesterday crawler FAIL
site19	FromDate:20-04-2017 15:07:15	ToDate:20-04-2017 15:09:19	TotalJob:22	TotalJobNew:22	Second:124	Minute:2
site20 update status = 0 all job yesterday crawler FAIL
site20	FromDate:20-04-2017 16:25:19	ToDate:20-04-2017 16:30:53	TotalJob:1500	TotalJobNew:1488	Second:333	Minute:5
site21 update status = 0 all job yesterday crawler FAIL
site21	FromDate:20-04-2017 17:53:06	ToDate:20-04-2017 17:54:39	TotalJob:140	TotalJobNew:140	Second:93	Minute:1
28-04-2017 15:27:14	site2	(JE 5.0.73) storage\frontier The environment cannot be locked for single writer access. ENV_LOCKED: The je.lck file could not be locked. Environment is invalid and must be closed.
site101 update status = 0 all job yesterday crawler FAIL
site101	FromDate:29-08-2017 15:51:19	ToDate:29-08-2017 15:51:25	TotalJob:0	TotalJobNew:0	Second:6	Minute:0
site101 update status = 0 all job yesterday crawler FAIL
site101	FromDate:29-08-2017 15:55:48	ToDate:29-08-2017 15:56:37	TotalJob:0	TotalJobNew:0	Second:48	Minute:0
site101 update status = 0 all job yesterday crawler FAIL
site101	FromDate:29-08-2017 15:59:26	ToDate:29-08-2017 16:00:10	TotalJob:0	TotalJobNew:0	Second:43	Minute:0
site101 update status = 0 all job yesterday crawler FAIL
site101	FromDate:29-08-2017 16:23:51	ToDate:29-08-2017 16:24:35	TotalJob:9	TotalJobNew:1	Second:43	Minute:0
site101 update status = 0 all job yesterday crawler FAIL
site101	FromDate:29-08-2017 17:27:47	ToDate:29-08-2017 17:28:34	TotalJob:10	TotalJobNew:0	Second:47	Minute:0
30-08-2017 11:47:12	site102	(JE 5.0.73) storage\frontier The environment cannot be locked for single writer access. ENV_LOCKED: The je.lck file could not be locked. Environment is invalid and must be closed.
site102	FromDate:30-08-2017 14:07:15	ToDate:30-08-2017 14:07:16	TotalJob:0	TotalJobNew:0	Second:0	Minute:0
30-08-2017 14:07:46	site102	(JE 5.0.73) storage\frontier The environment cannot be locked for single writer access. ENV_LOCKED: The je.lck file could not be locked. Environment is invalid and must be closed.
site103 update status = 0 all job yesterday crawler FAIL
site103	FromDate:30-08-2017 15:55:21	ToDate:30-08-2017 15:56:15	TotalJob:25	TotalJobNew:25	Second:53	Minute:0
